%!PS-Adobe-3.0 EPSF-3.0
%%Creator: (MATLAB, The Mathworks, Inc. Version 9.0.0.341360 \(R2016a\). Operating System: Windows 8)
%%Title: C:/Users/Yuta/Git/HW_YW/HW2SP/graph1alt.eps
%%CreationDate: 2017-02-05T13:01:40
%%Pages: (atend)
%%BoundingBox: 0 0 420 315
%%LanguageLevel: 3
%%EndComments
%%BeginProlog
%%BeginResource: procset (Apache XML Graphics Std ProcSet) 1.2 0
%%Version: 1.2 0
%%Copyright: (Copyright 2001-2003,2010 The Apache Software Foundation. License terms: http://www.apache.org/licenses/LICENSE-2.0)
/bd{bind def}bind def
/ld{load def}bd
/GR/grestore ld
/M/moveto ld
/LJ/setlinejoin ld
/C/curveto ld
/f/fill ld
/LW/setlinewidth ld
/GC/setgray ld
/t/show ld
/N/newpath ld
/CT/concat ld
/cp/closepath ld
/S/stroke ld
/L/lineto ld
/CC/setcmykcolor ld
/A/ashow ld
/GS/gsave ld
/RC/setrgbcolor ld
/RM/rmoveto ld
/ML/setmiterlimit ld
/re {4 2 roll M
1 index 0 rlineto
0 exch rlineto
neg 0 rlineto
cp } bd
/_ctm matrix def
/_tm matrix def
/BT { _ctm currentmatrix pop matrix _tm copy pop 0 0 moveto } bd
/ET { _ctm setmatrix } bd
/iTm { _ctm setmatrix _tm concat } bd
/Tm { _tm astore pop iTm 0 0 moveto } bd
/ux 0.0 def
/uy 0.0 def
/F {
  /Tp exch def
  /Tf exch def
  Tf findfont Tp scalefont setfont
  /cf Tf def  /cs Tp def
} bd
/ULS {currentpoint /uy exch def /ux exch def} bd
/ULE {
  /Tcx currentpoint pop def
  gsave
  newpath
  cf findfont cs scalefont dup
  /FontMatrix get 0 get /Ts exch def /FontInfo get dup
  /UnderlinePosition get Ts mul /To exch def
  /UnderlineThickness get Ts mul /Tt exch def
  ux uy To add moveto  Tcx uy To add lineto
  Tt setlinewidth stroke
  grestore
} bd
/OLE {
  /Tcx currentpoint pop def
  gsave
  newpath
  cf findfont cs scalefont dup
  /FontMatrix get 0 get /Ts exch def /FontInfo get dup
  /UnderlinePosition get Ts mul /To exch def
  /UnderlineThickness get Ts mul /Tt exch def
  ux uy To add cs add moveto Tcx uy To add cs add lineto
  Tt setlinewidth stroke
  grestore
} bd
/SOE {
  /Tcx currentpoint pop def
  gsave
  newpath
  cf findfont cs scalefont dup
  /FontMatrix get 0 get /Ts exch def /FontInfo get dup
  /UnderlinePosition get Ts mul /To exch def
  /UnderlineThickness get Ts mul /Tt exch def
  ux uy To add cs 10 mul 26 idiv add moveto Tcx uy To add cs 10 mul 26 idiv add lineto
  Tt setlinewidth stroke
  grestore
} bd
/QT {
/Y22 exch store
/X22 exch store
/Y21 exch store
/X21 exch store
currentpoint
/Y21 load 2 mul add 3 div exch
/X21 load 2 mul add 3 div exch
/X21 load 2 mul /X22 load add 3 div
/Y21 load 2 mul /Y22 load add 3 div
/X22 load /Y22 load curveto
} bd
/SSPD {
dup length /d exch dict def
{
/v exch def
/k exch def
currentpagedevice k known {
/cpdv currentpagedevice k get def
v cpdv ne {
/upd false def
/nullv v type /nulltype eq def
/nullcpdv cpdv type /nulltype eq def
nullv nullcpdv or
{
/upd true def
} {
/sametype v type cpdv type eq def
sametype {
v type /arraytype eq {
/vlen v length def
/cpdvlen cpdv length def
vlen cpdvlen eq {
0 1 vlen 1 sub {
/i exch def
/obj v i get def
/cpdobj cpdv i get def
obj cpdobj ne {
/upd true def
exit
} if
} for
} {
/upd true def
} ifelse
} {
v type /dicttype eq {
v {
/dv exch def
/dk exch def
/cpddv cpdv dk get def
dv cpddv ne {
/upd true def
exit
} if
} forall
} {
/upd true def
} ifelse
} ifelse
} if
} ifelse
upd true eq {
d k v put
} if
} if
} if
} forall
d length 0 gt {
d setpagedevice
} if
} bd
%%EndResource
%%BeginResource: procset (Apache XML Graphics EPS ProcSet) 1.0 0
%%Version: 1.0 0
%%Copyright: (Copyright 2002-2003 The Apache Software Foundation. License terms: http://www.apache.org/licenses/LICENSE-2.0)
/BeginEPSF { %def
/b4_Inc_state save def         % Save state for cleanup
/dict_count countdictstack def % Count objects on dict stack
/op_count count 1 sub def      % Count objects on operand stack
userdict begin                 % Push userdict on dict stack
/showpage { } def              % Redefine showpage, { } = null proc
0 setgray 0 setlinecap         % Prepare graphics state
1 setlinewidth 0 setlinejoin
10 setmiterlimit [ ] 0 setdash newpath
/languagelevel where           % If level not equal to 1 then
{pop languagelevel             % set strokeadjust and
1 ne                           % overprint to their defaults.
{false setstrokeadjust false setoverprint
} if
} if
} bd
/EndEPSF { %def
count op_count sub {pop} repeat            % Clean up stacks
countdictstack dict_count sub {end} repeat
b4_Inc_state restore
} bd
%%EndResource
%FOPBeginFontDict
%%IncludeResource: font Courier-Bold
%%IncludeResource: font Helvetica
%%IncludeResource: font Courier-BoldOblique
%%IncludeResource: font Courier-Oblique
%%IncludeResource: font Times-Roman
%%IncludeResource: font Helvetica-BoldOblique
%%IncludeResource: font Helvetica-Bold
%%IncludeResource: font Helvetica-Oblique
%%IncludeResource: font Times-BoldItalic
%%IncludeResource: font Courier
%%IncludeResource: font Times-Italic
%%IncludeResource: font Times-Bold
%%IncludeResource: font Symbol
%%IncludeResource: font ZapfDingbats
%FOPEndFontDict
%%BeginResource: encoding WinAnsiEncoding
/WinAnsiEncoding [
/.notdef /.notdef /.notdef /.notdef /.notdef
/.notdef /.notdef /.notdef /.notdef /.notdef
/.notdef /.notdef /.notdef /.notdef /.notdef
/.notdef /.notdef /.notdef /.notdef /.notdef
/.notdef /.notdef /.notdef /.notdef /.notdef
/.notdef /.notdef /.notdef /.notdef /.notdef
/.notdef /.notdef /space /exclam /quotedbl
/numbersign /dollar /percent /ampersand /quotesingle
/parenleft /parenright /asterisk /plus /comma
/hyphen /period /slash /zero /one
/two /three /four /five /six
/seven /eight /nine /colon /semicolon
/less /equal /greater /question /at
/A /B /C /D /E
/F /G /H /I /J
/K /L /M /N /O
/P /Q /R /S /T
/U /V /W /X /Y
/Z /bracketleft /backslash /bracketright /asciicircum
/underscore /quoteleft /a /b /c
/d /e /f /g /h
/i /j /k /l /m
/n /o /p /q /r
/s /t /u /v /w
/x /y /z /braceleft /bar
/braceright /asciitilde /bullet /Euro /bullet
/quotesinglbase /florin /quotedblbase /ellipsis /dagger
/daggerdbl /circumflex /perthousand /Scaron /guilsinglleft
/OE /bullet /Zcaron /bullet /bullet
/quoteleft /quoteright /quotedblleft /quotedblright /bullet
/endash /emdash /asciitilde /trademark /scaron
/guilsinglright /oe /bullet /zcaron /Ydieresis
/space /exclamdown /cent /sterling /currency
/yen /brokenbar /section /dieresis /copyright
/ordfeminine /guillemotleft /logicalnot /sfthyphen /registered
/macron /degree /plusminus /twosuperior /threesuperior
/acute /mu /paragraph /middot /cedilla
/onesuperior /ordmasculine /guillemotright /onequarter /onehalf
/threequarters /questiondown /Agrave /Aacute /Acircumflex
/Atilde /Adieresis /Aring /AE /Ccedilla
/Egrave /Eacute /Ecircumflex /Edieresis /Igrave
/Iacute /Icircumflex /Idieresis /Eth /Ntilde
/Ograve /Oacute /Ocircumflex /Otilde /Odieresis
/multiply /Oslash /Ugrave /Uacute /Ucircumflex
/Udieresis /Yacute /Thorn /germandbls /agrave
/aacute /acircumflex /atilde /adieresis /aring
/ae /ccedilla /egrave /eacute /ecircumflex
/edieresis /igrave /iacute /icircumflex /idieresis
/eth /ntilde /ograve /oacute /ocircumflex
/otilde /odieresis /divide /oslash /ugrave
/uacute /ucircumflex /udieresis /yacute /thorn
/ydieresis
] def
%%EndResource
%FOPBeginFontReencode
/Courier-Bold findfont
dup length dict begin
  {1 index /FID ne {def} {pop pop} ifelse} forall
  /Encoding WinAnsiEncoding def
  currentdict
end
/Courier-Bold exch definefont pop
/Helvetica findfont
dup length dict begin
  {1 index /FID ne {def} {pop pop} ifelse} forall
  /Encoding WinAnsiEncoding def
  currentdict
end
/Helvetica exch definefont pop
/Courier-BoldOblique findfont
dup length dict begin
  {1 index /FID ne {def} {pop pop} ifelse} forall
  /Encoding WinAnsiEncoding def
  currentdict
end
/Courier-BoldOblique exch definefont pop
/Courier-Oblique findfont
dup length dict begin
  {1 index /FID ne {def} {pop pop} ifelse} forall
  /Encoding WinAnsiEncoding def
  currentdict
end
/Courier-Oblique exch definefont pop
/Times-Roman findfont
dup length dict begin
  {1 index /FID ne {def} {pop pop} ifelse} forall
  /Encoding WinAnsiEncoding def
  currentdict
end
/Times-Roman exch definefont pop
/Helvetica-BoldOblique findfont
dup length dict begin
  {1 index /FID ne {def} {pop pop} ifelse} forall
  /Encoding WinAnsiEncoding def
  currentdict
end
/Helvetica-BoldOblique exch definefont pop
/Helvetica-Bold findfont
dup length dict begin
  {1 index /FID ne {def} {pop pop} ifelse} forall
  /Encoding WinAnsiEncoding def
  currentdict
end
/Helvetica-Bold exch definefont pop
/Helvetica-Oblique findfont
dup length dict begin
  {1 index /FID ne {def} {pop pop} ifelse} forall
  /Encoding WinAnsiEncoding def
  currentdict
end
/Helvetica-Oblique exch definefont pop
/Times-BoldItalic findfont
dup length dict begin
  {1 index /FID ne {def} {pop pop} ifelse} forall
  /Encoding WinAnsiEncoding def
  currentdict
end
/Times-BoldItalic exch definefont pop
/Courier findfont
dup length dict begin
  {1 index /FID ne {def} {pop pop} ifelse} forall
  /Encoding WinAnsiEncoding def
  currentdict
end
/Courier exch definefont pop
/Times-Italic findfont
dup length dict begin
  {1 index /FID ne {def} {pop pop} ifelse} forall
  /Encoding WinAnsiEncoding def
  currentdict
end
/Times-Italic exch definefont pop
/Times-Bold findfont
dup length dict begin
  {1 index /FID ne {def} {pop pop} ifelse} forall
  /Encoding WinAnsiEncoding def
  currentdict
end
/Times-Bold exch definefont pop
%FOPEndFontReencode
%%EndProlog
%%Page: 1 1
%%PageBoundingBox: 0 0 420 315
%%BeginPageSetup
[1 0 0 -1 0 315] CT
%%EndPageSetup
GS
[0.5 0 0 0.5 0 0] CT
1 GC
N
0 0 840 630 re
f
GR
GS
[0.5 0 0 0.5 0 0] CT
1 GC
N
0 0 840 630 re
f
GR
GS
[0.5 0 0 0.5 0 0] CT
1 GC
N
109 561 M
760 561 L
760 47 L
109 47 L
cp
f
GR
GS
[0.5 0 0 0.5 0 0] CT
0.149 GC
2 setlinecap
1 LJ
N
109 561 M
760 561 L
S
GR
GS
[0.5 0 0 0.5 0 0] CT
0.149 GC
2 setlinecap
1 LJ
N
109 47 M
760 47 L
S
GR
GS
[0.5 0 0 0.5 0 0] CT
0.149 GC
2 setlinecap
1 LJ
N
109 561 M
109 554.49 L
S
GR
GS
[0.5 0 0 0.5 0 0] CT
0.149 GC
2 setlinecap
1 LJ
N
239.2 561 M
239.2 554.49 L
S
GR
GS
[0.5 0 0 0.5 0 0] CT
0.149 GC
2 setlinecap
1 LJ
N
369.4 561 M
369.4 554.49 L
S
GR
GS
[0.5 0 0 0.5 0 0] CT
0.149 GC
2 setlinecap
1 LJ
N
499.6 561 M
499.6 554.49 L
S
GR
GS
[0.5 0 0 0.5 0 0] CT
0.149 GC
2 setlinecap
1 LJ
N
629.8 561 M
629.8 554.49 L
S
GR
GS
[0.5 0 0 0.5 0 0] CT
0.149 GC
2 setlinecap
1 LJ
N
760 561 M
760 554.49 L
S
GR
GS
[0.5 0 0 0.5 0 0] CT
0.149 GC
2 setlinecap
1 LJ
N
109 47 M
109 53.51 L
S
GR
GS
[0.5 0 0 0.5 0 0] CT
0.149 GC
2 setlinecap
1 LJ
N
239.2 47 M
239.2 53.51 L
S
GR
GS
[0.5 0 0 0.5 0 0] CT
0.149 GC
2 setlinecap
1 LJ
N
369.4 47 M
369.4 53.51 L
S
GR
GS
[0.5 0 0 0.5 0 0] CT
0.149 GC
2 setlinecap
1 LJ
N
499.6 47 M
499.6 53.51 L
S
GR
GS
[0.5 0 0 0.5 0 0] CT
0.149 GC
2 setlinecap
1 LJ
N
629.8 47 M
629.8 53.51 L
S
GR
GS
[0.5 0 0 0.5 0 0] CT
0.149 GC
2 setlinecap
1 LJ
N
760 47 M
760 53.51 L
S
GR
GS
[0.5 0 0 0.5 54.5 284.5] CT
0.149 GC
/Helvetica 20 F
GS
[1 0 0 1 0 0] CT
-6 21 moveto 
1 -1 scale
(0) t 
GR
GR
GS
[0.5 0 0 0.5 119.6 284.5] CT
0.149 GC
/Helvetica 20 F
GS
[1 0 0 1 0 0] CT
-11.5 21 moveto 
1 -1 scale
(20) t 
GR
GR
GS
[0.5 0 0 0.5 184.7 284.5] CT
0.149 GC
/Helvetica 20 F
GS
[1 0 0 1 0 0] CT
-11.5 21 moveto 
1 -1 scale
(40) t 
GR
GR
GS
[0.5 0 0 0.5 249.8 284.5] CT
0.149 GC
/Helvetica 20 F
GS
[1 0 0 1 0 0] CT
-11.5 21 moveto 
1 -1 scale
(60) t 
GR
GR
GS
[0.5 0 0 0.5 314.89999 284.5] CT
0.149 GC
/Helvetica 20 F
GS
[1 0 0 1 0 0] CT
-11.5 21 moveto 
1 -1 scale
(80) t 
GR
GR
GS
[0.5 0 0 0.5 380 284.5] CT
0.149 GC
/Helvetica 20 F
GS
[1 0 0 1 0 0] CT
-17 21 moveto 
1 -1 scale
(100) t 
GR
GR
GS
[0.5 0 0 0.5 0 0] CT
0.149 GC
2 setlinecap
1 LJ
N
109 561 M
109 47 L
S
GR
GS
[0.5 0 0 0.5 0 0] CT
0.149 GC
2 setlinecap
1 LJ
N
760 561 M
760 47 L
S
GR
GS
[0.5 0 0 0.5 0 0] CT
0.149 GC
2 setlinecap
1 LJ
N
109 561 M
115.51 561 L
S
GR
GS
[0.5 0 0 0.5 0 0] CT
0.149 GC
2 setlinecap
1 LJ
N
109 503.889 M
115.51 503.889 L
S
GR
GS
[0.5 0 0 0.5 0 0] CT
0.149 GC
2 setlinecap
1 LJ
N
109 446.778 M
115.51 446.778 L
S
GR
GS
[0.5 0 0 0.5 0 0] CT
0.149 GC
2 setlinecap
1 LJ
N
109 389.667 M
115.51 389.667 L
S
GR
GS
[0.5 0 0 0.5 0 0] CT
0.149 GC
2 setlinecap
1 LJ
N
109 332.556 M
115.51 332.556 L
S
GR
GS
[0.5 0 0 0.5 0 0] CT
0.149 GC
2 setlinecap
1 LJ
N
109 275.444 M
115.51 275.444 L
S
GR
GS
[0.5 0 0 0.5 0 0] CT
0.149 GC
2 setlinecap
1 LJ
N
109 218.333 M
115.51 218.333 L
S
GR
GS
[0.5 0 0 0.5 0 0] CT
0.149 GC
2 setlinecap
1 LJ
N
109 161.222 M
115.51 161.222 L
S
GR
GS
[0.5 0 0 0.5 0 0] CT
0.149 GC
2 setlinecap
1 LJ
N
109 104.111 M
115.51 104.111 L
S
GR
GS
[0.5 0 0 0.5 0 0] CT
0.149 GC
2 setlinecap
1 LJ
N
109 47 M
115.51 47 L
S
GR
GS
[0.5 0 0 0.5 0 0] CT
0.149 GC
2 setlinecap
1 LJ
N
760 561 M
753.49 561 L
S
GR
GS
[0.5 0 0 0.5 0 0] CT
0.149 GC
2 setlinecap
1 LJ
N
760 503.889 M
753.49 503.889 L
S
GR
GS
[0.5 0 0 0.5 0 0] CT
0.149 GC
2 setlinecap
1 LJ
N
760 446.778 M
753.49 446.778 L
S
GR
GS
[0.5 0 0 0.5 0 0] CT
0.149 GC
2 setlinecap
1 LJ
N
760 389.667 M
753.49 389.667 L
S
GR
GS
[0.5 0 0 0.5 0 0] CT
0.149 GC
2 setlinecap
1 LJ
N
760 332.556 M
753.49 332.556 L
S
GR
GS
[0.5 0 0 0.5 0 0] CT
0.149 GC
2 setlinecap
1 LJ
N
760 275.444 M
753.49 275.444 L
S
GR
GS
[0.5 0 0 0.5 0 0] CT
0.149 GC
2 setlinecap
1 LJ
N
760 218.333 M
753.49 218.333 L
S
GR
GS
[0.5 0 0 0.5 0 0] CT
0.149 GC
2 setlinecap
1 LJ
N
760 161.222 M
753.49 161.222 L
S
GR
GS
[0.5 0 0 0.5 0 0] CT
0.149 GC
2 setlinecap
1 LJ
N
760 104.111 M
753.49 104.111 L
S
GR
GS
[0.5 0 0 0.5 0 0] CT
0.149 GC
2 setlinecap
1 LJ
N
760 47 M
753.49 47 L
S
GR
GS
[0.5 0 0 0.5 50.5 280.5] CT
0.149 GC
/Helvetica 20 F
GS
[1 0 0 1 0 0] CT
-12 8 moveto 
1 -1 scale
(0) t 
GR
GR
GS
[0.5 0 0 0.5 50.5 251.94444] CT
0.149 GC
/Helvetica 20 F
GS
[1 0 0 1 0 0] CT
-12 8 moveto 
1 -1 scale
(5) t 
GR
GR
GS
[0.5 0 0 0.5 50.5 223.38889] CT
0.149 GC
/Helvetica 20 F
GS
[1 0 0 1 0 0] CT
-23 8 moveto 
1 -1 scale
(10) t 
GR
GR
GS
[0.5 0 0 0.5 50.5 194.83333] CT
0.149 GC
/Helvetica 20 F
GS
[1 0 0 1 0 0] CT
-23 8 moveto 
1 -1 scale
(15) t 
GR
GR
GS
[0.5 0 0 0.5 50.5 166.27777] CT
0.149 GC
/Helvetica 20 F
GS
[1 0 0 1 0 0] CT
-23 8 moveto 
1 -1 scale
(20) t 
GR
GR
GS
[0.5 0 0 0.5 50.5 137.72223] CT
0.149 GC
/Helvetica 20 F
GS
[1 0 0 1 0 0] CT
-23 8 moveto 
1 -1 scale
(25) t 
GR
GR
GS
[0.5 0 0 0.5 50.5 109.16666] CT
0.149 GC
/Helvetica 20 F
GS
[1 0 0 1 0 0] CT
-23 8 moveto 
1 -1 scale
(30) t 
GR
GR
GS
[0.5 0 0 0.5 50.5 80.61111] CT
0.149 GC
/Helvetica 20 F
GS
[1 0 0 1 0 0] CT
-23 8 moveto 
1 -1 scale
(35) t 
GR
GR
GS
[0.5 0 0 0.5 50.5 52.05556] CT
0.149 GC
/Helvetica 20 F
GS
[1 0 0 1 0 0] CT
-23 8 moveto 
1 -1 scale
(40) t 
GR
GR
GS
[0.5 0 0 0.5 50.5 23.5] CT
0.149 GC
/Helvetica 20 F
GS
[1 0 0 1 0 0] CT
-23 8 moveto 
1 -1 scale
(45) t 
GR
GR
GS
[0.5 0 0 0.5 217.25021 22.12501] CT
/Helvetica-Bold 22 F
GS
[1 0 0 1 0 0] CT
-43 -5 moveto 
1 -1 scale
(Figure 1) t 
GR
GR
GS
[0.5 0 0 0.5 0 0] CT
0 0.447 0.741 RC
1 LJ
N
109 561 M
112.255 556.502 L
115.51 552.165 L
118.765 548.024 L
122.02 544.064 L
125.275 540.15 L
128.53 536.265 L
131.785 532.438 L
135.04 528.683 L
138.295 525.001 L
141.55 521.397 L
144.805 517.867 L
148.06 514.379 L
151.315 510.944 L
154.57 507.572 L
157.825 504.245 L
161.08 500.968 L
164.335 497.723 L
167.59 494.503 L
170.845 491.317 L
174.1 488.146 L
177.355 485.016 L
180.61 481.922 L
183.865 478.863 L
187.12 475.83 L
190.375 472.838 L
193.63 469.878 L
196.885 466.952 L
200.14 464.048 L
203.395 461.167 L
206.65 458.319 L
209.905 455.498 L
213.16 452.688 L
216.415 449.898 L
219.67 447.131 L
222.925 444.38 L
226.18 441.656 L
229.435 438.956 L
232.69 436.279 L
235.945 433.617 L
239.2 430.977 L
242.455 428.357 L
245.71 425.758 L
248.965 423.182 L
252.22 420.627 L
255.475 418.088 L
258.73 415.571 L
261.985 413.074 L
265.24 410.597 L
268.495 408.14 L
271.75 405.683 L
275.005 403.247 L
278.26 400.822 L
281.515 398.412 L
284.77 396.014 L
288.025 393.634 L
291.28 391.271 L
294.535 388.924 L
297.79 386.593 L
301.045 384.276 L
304.3 381.973 L
307.555 379.685 L
310.81 377.414 L
314.065 375.158 L
317.32 372.916 L
320.575 370.689 L
323.83 368.472 L
327.085 366.269 L
330.34 364.079 L
333.595 361.904 L
336.85 359.742 L
340.105 357.589 L
343.36 355.441 L
346.615 353.307 L
349.87 351.186 L
353.125 349.076 L
356.38 346.976 L
359.635 344.886 L
362.89 342.81 L
366.145 340.747 L
369.4 338.696 L
372.655 336.656 L
375.91 334.626 L
379.165 332.605 L
382.42 330.595 L
385.675 328.596 L
388.93 326.608 L
392.185 324.631 L
395.44 322.665 L
398.695 320.71 L
401.95 318.766 L
405.205 316.833 L
408.46 314.908 L
411.715 312.994 L
414.97 311.091 L
418.225 309.199 L
421.48 307.317 L
424.735 305.435 L
427.99 303.563 L
431.245 301.7 L
434.5 299.849 L
437.755 298.008 L
441.01 296.172 L
444.265 294.34 L
447.52 292.518 L
450.775 290.706 L
454.03 288.904 L
457.285 287.111 L
460.54 285.327 L
463.795 283.549 L
467.05 281.781 L
470.305 280.023 L
473.56 278.272 L
476.815 276.527 L
480.07 274.792 L
483.325 273.064 L
486.58 271.347 L
489.835 269.638 L
493.09 267.937 L
496.345 266.243 L
499.6 264.558 L
502.855 262.882 L
506.11 261.214 L
509.365 259.552 L
512.62 257.895 L
515.875 256.246 L
519.13 254.606 L
522.385 252.972 L
525.64 251.341 L
528.895 249.717 L
532.15 248.099 L
535.405 246.488 L
538.66 244.884 L
541.915 243.29 L
545.17 241.702 L
548.425 240.118 L
551.68 238.54 L
554.935 236.968 L
558.19 235.404 L
561.445 233.848 L
564.7 232.3 L
567.955 230.758 L
571.21 229.221 L
574.465 227.691 L
577.72 226.169 L
580.975 224.654 L
584.23 223.144 L
587.485 221.641 L
590.74 220.144 L
593.995 218.652 L
597.25 217.165 L
600.505 215.685 L
603.76 214.212 L
607.015 212.745 L
610.27 211.284 L
613.525 209.829 L
616.78 208.38 L
620.035 206.938 L
623.29 205.501 L
626.545 204.07 L
629.8 202.645 L
633.055 201.225 L
636.31 199.811 L
639.565 198.404 L
642.82 196.999 L
646.075 195.597 L
649.33 194.201 L
652.585 192.811 L
655.84 191.426 L
659.095 190.048 L
662.35 188.674 L
665.605 187.307 L
668.86 185.944 L
672.115 184.585 L
675.37 183.232 L
678.625 181.884 L
681.88 180.542 L
685.135 179.206 L
688.39 177.874 L
691.645 176.546 L
694.9 175.222 L
698.155 173.904 L
701.41 172.591 L
704.665 171.283 L
707.92 169.981 L
711.175 168.683 L
714.43 167.391 L
717.685 166.103 L
720.94 164.819 L
724.195 163.542 L
727.45 162.269 L
730.705 161.001 L
733.96 159.737 L
737.215 158.478 L
740.47 157.223 L
743.725 155.974 L
746.98 154.729 L
750.235 153.489 L
753.49 152.254 L
756.745 151.024 L
760 149.798 L
S
GR
GS
[0.5 0 0 0.5 0 0] CT
0.851 0.325 0.098 RC
1 LJ
N
109 561 M
112.255 556.097 L
115.51 551.328 L
118.765 546.789 L
122.02 542.436 L
125.275 538.202 L
128.53 534.056 L
131.785 529.992 L
135.04 526.014 L
138.295 522.126 L
141.55 518.317 L
144.805 514.518 L
148.06 510.787 L
151.315 507.139 L
154.57 503.517 L
157.825 499.956 L
161.08 496.469 L
164.335 493.022 L
167.59 489.575 L
170.845 486.18 L
174.1 482.847 L
177.355 479.548 L
180.61 476.266 L
183.865 473.036 L
187.12 469.847 L
190.375 466.691 L
193.63 463.549 L
196.885 460.419 L
200.14 457.337 L
203.395 454.29 L
206.65 451.275 L
209.905 448.278 L
213.16 445.303 L
216.415 442.366 L
219.67 439.458 L
222.925 436.582 L
226.18 433.712 L
229.435 430.861 L
232.69 428.029 L
235.945 425.225 L
239.2 422.448 L
242.455 419.696 L
245.71 416.958 L
248.965 414.242 L
252.22 411.547 L
255.475 408.877 L
258.73 406.229 L
261.985 403.603 L
265.24 400.98 L
268.495 398.369 L
271.75 395.781 L
275.005 393.214 L
278.26 390.668 L
281.515 388.143 L
284.77 385.64 L
288.025 383.146 L
291.28 380.663 L
294.535 378.198 L
297.79 375.752 L
301.045 373.326 L
304.3 370.917 L
307.555 368.523 L
310.81 366.133 L
314.065 363.756 L
317.32 361.393 L
320.575 359.047 L
323.83 356.717 L
327.085 354.403 L
330.34 352.104 L
333.595 349.819 L
336.85 347.542 L
340.105 345.28 L
343.36 343.032 L
346.615 340.799 L
349.87 338.582 L
353.125 336.38 L
356.38 334.191 L
359.635 332.012 L
362.89 329.836 L
366.145 327.67 L
369.4 325.515 L
372.655 323.373 L
375.91 321.245 L
379.165 319.131 L
382.42 317.029 L
385.675 314.941 L
388.93 312.862 L
392.185 310.791 L
395.44 308.731 L
398.695 306.683 L
401.95 304.647 L
405.205 302.621 L
408.46 300.606 L
411.715 298.603 L
414.97 296.612 L
418.225 294.631 L
421.48 292.653 L
424.735 290.682 L
427.99 288.72 L
431.245 286.771 L
434.5 284.832 L
437.755 282.904 L
441.01 280.986 L
444.265 279.079 L
447.52 277.183 L
450.775 275.297 L
454.03 273.416 L
457.285 271.539 L
460.54 269.672 L
463.795 267.816 L
467.05 265.97 L
470.305 264.134 L
473.56 262.308 L
476.815 260.49 L
480.07 258.682 L
483.325 256.885 L
486.58 255.094 L
489.835 253.308 L
493.09 251.524 L
496.345 249.748 L
499.6 247.982 L
502.855 246.227 L
506.11 244.479 L
509.365 242.738 L
512.62 241.005 L
515.875 239.281 L
519.13 237.566 L
522.385 235.859 L
525.64 234.158 L
528.895 232.462 L
532.15 230.773 L
535.405 229.094 L
538.66 227.425 L
541.915 225.763 L
545.17 224.107 L
548.425 222.458 L
551.68 220.819 L
554.935 219.188 L
558.19 217.564 L
561.445 215.945 L
564.7 214.331 L
567.955 212.723 L
571.21 211.12 L
574.465 209.521 L
577.72 207.93 L
580.975 206.347 L
584.23 204.77 L
587.485 203.199 L
590.74 201.636 L
593.995 200.081 L
597.25 198.533 L
600.505 196.991 L
603.76 195.454 L
607.015 193.923 L
610.27 192.399 L
613.525 190.879 L
616.78 189.366 L
620.035 187.861 L
623.29 186.361 L
626.545 184.867 L
629.8 183.38 L
633.055 181.9 L
636.31 180.425 L
639.565 178.956 L
642.82 177.494 L
646.075 176.036 L
649.33 174.585 L
652.585 173.139 L
655.84 171.701 L
659.095 170.268 L
662.35 168.84 L
665.605 167.413 L
668.86 165.991 L
672.115 164.576 L
675.37 163.167 L
678.625 161.764 L
681.88 160.367 L
685.135 158.974 L
688.39 157.587 L
691.645 156.205 L
694.9 154.829 L
698.155 153.459 L
701.41 152.094 L
704.665 150.735 L
707.92 149.378 L
711.175 148.025 L
714.43 146.678 L
717.685 145.337 L
720.94 144.001 L
724.195 142.671 L
727.45 141.345 L
730.705 140.025 L
733.96 138.709 L
737.215 137.399 L
740.47 136.095 L
743.725 134.796 L
746.98 133.501 L
750.235 132.211 L
753.49 130.925 L
756.745 129.643 L
760 128.368 L
S
GR
GS
[0.5 0 0 0.5 0 0] CT
0.929 0.694 0.125 RC
1 LJ
N
109 561 M
112.255 555.107 L
115.51 549.884 L
118.765 544.733 L
122.02 539.945 L
125.275 535.176 L
128.53 530.565 L
131.785 526.129 L
135.04 521.771 L
138.295 517.481 L
141.55 513.311 L
144.805 509.18 L
148.06 505.127 L
151.315 501.155 L
154.57 497.257 L
157.825 493.397 L
161.08 489.598 L
164.335 485.823 L
167.59 482.116 L
170.845 478.488 L
174.1 474.875 L
177.355 471.295 L
180.61 467.763 L
183.865 464.296 L
187.12 460.858 L
190.375 457.454 L
193.63 454.071 L
196.885 450.729 L
200.14 447.423 L
203.395 444.147 L
206.65 440.905 L
209.905 437.717 L
213.16 434.548 L
216.415 431.394 L
219.67 428.271 L
222.925 425.167 L
226.18 422.09 L
229.435 419.052 L
232.69 416.043 L
235.945 413.065 L
239.2 410.099 L
242.455 407.157 L
245.71 404.234 L
248.965 401.336 L
252.22 398.466 L
255.475 395.62 L
258.73 392.792 L
261.985 389.991 L
265.24 387.213 L
268.495 384.438 L
271.75 381.687 L
275.005 378.954 L
278.26 376.245 L
281.515 373.553 L
284.77 370.883 L
288.025 368.236 L
291.28 365.612 L
294.535 363.007 L
297.79 360.415 L
301.045 357.834 L
304.3 355.265 L
307.555 352.705 L
310.81 350.166 L
314.065 347.646 L
317.32 345.147 L
320.575 342.665 L
323.83 340.204 L
327.085 337.759 L
330.34 335.329 L
333.595 332.912 L
336.85 330.501 L
340.105 328.105 L
343.36 325.723 L
346.615 323.355 L
349.87 321 L
353.125 318.656 L
356.38 316.328 L
359.635 314.017 L
362.89 311.721 L
366.145 309.443 L
369.4 307.18 L
372.655 304.931 L
375.91 302.682 L
379.165 300.445 L
382.42 298.216 L
385.675 296.001 L
388.93 293.799 L
392.185 291.612 L
395.44 289.438 L
398.695 287.277 L
401.95 285.129 L
405.205 282.993 L
408.46 280.867 L
411.715 278.753 L
414.97 276.652 L
418.225 274.564 L
421.48 272.476 L
424.735 270.395 L
427.99 268.327 L
431.245 266.268 L
434.5 264.222 L
437.755 262.187 L
441.01 260.162 L
444.265 258.149 L
447.52 256.148 L
450.775 254.158 L
454.03 252.179 L
457.285 250.21 L
460.54 248.253 L
463.795 246.307 L
467.05 244.372 L
470.305 242.44 L
473.56 240.509 L
476.815 238.583 L
480.07 236.667 L
483.325 234.762 L
486.58 232.867 L
489.835 230.983 L
493.09 229.109 L
496.345 227.245 L
499.6 225.391 L
502.855 223.549 L
506.11 221.713 L
509.365 219.885 L
512.62 218.066 L
515.875 216.258 L
519.13 214.461 L
522.385 212.669 L
525.64 210.883 L
528.895 209.103 L
532.15 207.323 L
535.405 205.553 L
538.66 203.793 L
541.915 202.041 L
545.17 200.297 L
548.425 198.558 L
551.68 196.828 L
554.935 195.107 L
558.19 193.397 L
561.445 191.693 L
564.7 189.997 L
567.955 188.308 L
571.21 186.628 L
574.465 184.958 L
577.72 183.295 L
580.975 181.637 L
584.23 179.984 L
587.485 178.336 L
590.74 176.697 L
593.995 175.064 L
597.25 173.434 L
600.505 171.811 L
603.76 170.195 L
607.015 168.585 L
610.27 166.983 L
613.525 165.389 L
616.78 163.803 L
620.035 162.224 L
623.29 160.65 L
626.545 159.082 L
629.8 157.522 L
633.055 155.967 L
636.31 154.42 L
639.565 152.88 L
642.82 151.344 L
646.075 149.814 L
649.33 148.292 L
652.585 146.777 L
655.84 145.266 L
659.095 143.762 L
662.35 142.264 L
665.605 140.771 L
668.86 139.282 L
672.115 137.795 L
675.37 136.315 L
678.625 134.842 L
681.88 133.376 L
685.135 131.914 L
688.39 130.459 L
691.645 129.01 L
694.9 127.568 L
698.155 126.131 L
701.41 124.701 L
704.665 123.276 L
707.92 121.855 L
711.175 120.442 L
714.43 119.034 L
717.685 117.632 L
720.94 116.236 L
724.195 114.845 L
727.45 113.458 L
730.705 112.074 L
733.96 110.695 L
737.215 109.321 L
740.47 107.954 L
743.725 106.593 L
746.98 105.236 L
750.235 103.885 L
753.49 102.534 L
756.745 101.189 L
760 99.849 L
S
GR
GS
[0.5 0 0 0.5 0 0] CT
1 GC
N
633 143 M
633 67 L
740 67 L
740 143 L
cp
f
GR
GS
[0.5 0 0 0.5 344.12094 40.70261] CT
/Helvetica 18 F
GS
[1 0 0 1 0 0] CT
0 7.5 moveto 
1 -1 scale
(p=0.9) t 
GR
GR
GS
[0.5 0 0 0.5 0 0] CT
0 0.447 0.741 RC
1 LJ
N
638.972 81.405 M
683.763 81.405 L
S
GR
GS
[0.5 0 0 0.5 344.12094 52.5] CT
/Helvetica 18 F
GS
[1 0 0 1 0 0] CT
0 7.5 moveto 
1 -1 scale
(p=1) t 
GR
GR
GS
[0.5 0 0 0.5 0 0] CT
0.851 0.325 0.098 RC
1 LJ
N
638.972 105 M
683.763 105 L
S
GR
GS
[0.5 0 0 0.5 344.12094 64.29739] CT
/Helvetica 18 F
GS
[1 0 0 1 0 0] CT
0 7.5 moveto 
1 -1 scale
(p=1.1) t 
GR
GR
GS
[0.5 0 0 0.5 0 0] CT
0.929 0.694 0.125 RC
1 LJ
N
638.972 128.595 M
683.763 128.595 L
S
GR
GS
[0.5 0 0 0.5 0 0] CT
0.149 GC
10.0 ML
N
633 143 M
633 67 L
740 67 L
740 143 L
cp
S
GR
%%Trailer
%%Pages: 1
%%EOF
