%!PS-Adobe-3.0 EPSF-3.0
%%Creator: (MATLAB, The Mathworks, Inc. Version 9.0.0.341360 \(R2016a\). Operating System: Windows 8)
%%Title: C:/Users/Yuta/Git/HW_YW/HW2SP/graph1.eps
%%CreationDate: 2017-02-05T13:00:31
%%Pages: (atend)
%%BoundingBox: 0 0 420 315
%%LanguageLevel: 3
%%EndComments
%%BeginProlog
%%BeginResource: procset (Apache XML Graphics Std ProcSet) 1.2 0
%%Version: 1.2 0
%%Copyright: (Copyright 2001-2003,2010 The Apache Software Foundation. License terms: http://www.apache.org/licenses/LICENSE-2.0)
/bd{bind def}bind def
/ld{load def}bd
/GR/grestore ld
/M/moveto ld
/LJ/setlinejoin ld
/C/curveto ld
/f/fill ld
/LW/setlinewidth ld
/GC/setgray ld
/t/show ld
/N/newpath ld
/CT/concat ld
/cp/closepath ld
/S/stroke ld
/L/lineto ld
/CC/setcmykcolor ld
/A/ashow ld
/GS/gsave ld
/RC/setrgbcolor ld
/RM/rmoveto ld
/ML/setmiterlimit ld
/re {4 2 roll M
1 index 0 rlineto
0 exch rlineto
neg 0 rlineto
cp } bd
/_ctm matrix def
/_tm matrix def
/BT { _ctm currentmatrix pop matrix _tm copy pop 0 0 moveto } bd
/ET { _ctm setmatrix } bd
/iTm { _ctm setmatrix _tm concat } bd
/Tm { _tm astore pop iTm 0 0 moveto } bd
/ux 0.0 def
/uy 0.0 def
/F {
  /Tp exch def
  /Tf exch def
  Tf findfont Tp scalefont setfont
  /cf Tf def  /cs Tp def
} bd
/ULS {currentpoint /uy exch def /ux exch def} bd
/ULE {
  /Tcx currentpoint pop def
  gsave
  newpath
  cf findfont cs scalefont dup
  /FontMatrix get 0 get /Ts exch def /FontInfo get dup
  /UnderlinePosition get Ts mul /To exch def
  /UnderlineThickness get Ts mul /Tt exch def
  ux uy To add moveto  Tcx uy To add lineto
  Tt setlinewidth stroke
  grestore
} bd
/OLE {
  /Tcx currentpoint pop def
  gsave
  newpath
  cf findfont cs scalefont dup
  /FontMatrix get 0 get /Ts exch def /FontInfo get dup
  /UnderlinePosition get Ts mul /To exch def
  /UnderlineThickness get Ts mul /Tt exch def
  ux uy To add cs add moveto Tcx uy To add cs add lineto
  Tt setlinewidth stroke
  grestore
} bd
/SOE {
  /Tcx currentpoint pop def
  gsave
  newpath
  cf findfont cs scalefont dup
  /FontMatrix get 0 get /Ts exch def /FontInfo get dup
  /UnderlinePosition get Ts mul /To exch def
  /UnderlineThickness get Ts mul /Tt exch def
  ux uy To add cs 10 mul 26 idiv add moveto Tcx uy To add cs 10 mul 26 idiv add lineto
  Tt setlinewidth stroke
  grestore
} bd
/QT {
/Y22 exch store
/X22 exch store
/Y21 exch store
/X21 exch store
currentpoint
/Y21 load 2 mul add 3 div exch
/X21 load 2 mul add 3 div exch
/X21 load 2 mul /X22 load add 3 div
/Y21 load 2 mul /Y22 load add 3 div
/X22 load /Y22 load curveto
} bd
/SSPD {
dup length /d exch dict def
{
/v exch def
/k exch def
currentpagedevice k known {
/cpdv currentpagedevice k get def
v cpdv ne {
/upd false def
/nullv v type /nulltype eq def
/nullcpdv cpdv type /nulltype eq def
nullv nullcpdv or
{
/upd true def
} {
/sametype v type cpdv type eq def
sametype {
v type /arraytype eq {
/vlen v length def
/cpdvlen cpdv length def
vlen cpdvlen eq {
0 1 vlen 1 sub {
/i exch def
/obj v i get def
/cpdobj cpdv i get def
obj cpdobj ne {
/upd true def
exit
} if
} for
} {
/upd true def
} ifelse
} {
v type /dicttype eq {
v {
/dv exch def
/dk exch def
/cpddv cpdv dk get def
dv cpddv ne {
/upd true def
exit
} if
} forall
} {
/upd true def
} ifelse
} ifelse
} if
} ifelse
upd true eq {
d k v put
} if
} if
} if
} forall
d length 0 gt {
d setpagedevice
} if
} bd
%%EndResource
%%BeginResource: procset (Apache XML Graphics EPS ProcSet) 1.0 0
%%Version: 1.0 0
%%Copyright: (Copyright 2002-2003 The Apache Software Foundation. License terms: http://www.apache.org/licenses/LICENSE-2.0)
/BeginEPSF { %def
/b4_Inc_state save def         % Save state for cleanup
/dict_count countdictstack def % Count objects on dict stack
/op_count count 1 sub def      % Count objects on operand stack
userdict begin                 % Push userdict on dict stack
/showpage { } def              % Redefine showpage, { } = null proc
0 setgray 0 setlinecap         % Prepare graphics state
1 setlinewidth 0 setlinejoin
10 setmiterlimit [ ] 0 setdash newpath
/languagelevel where           % If level not equal to 1 then
{pop languagelevel             % set strokeadjust and
1 ne                           % overprint to their defaults.
{false setstrokeadjust false setoverprint
} if
} if
} bd
/EndEPSF { %def
count op_count sub {pop} repeat            % Clean up stacks
countdictstack dict_count sub {end} repeat
b4_Inc_state restore
} bd
%%EndResource
%FOPBeginFontDict
%%IncludeResource: font Courier-Bold
%%IncludeResource: font Helvetica
%%IncludeResource: font Courier-BoldOblique
%%IncludeResource: font Courier-Oblique
%%IncludeResource: font Times-Roman
%%IncludeResource: font Helvetica-BoldOblique
%%IncludeResource: font Helvetica-Bold
%%IncludeResource: font Helvetica-Oblique
%%IncludeResource: font Times-BoldItalic
%%IncludeResource: font Courier
%%IncludeResource: font Times-Italic
%%IncludeResource: font Times-Bold
%%IncludeResource: font Symbol
%%IncludeResource: font ZapfDingbats
%FOPEndFontDict
%%BeginResource: encoding WinAnsiEncoding
/WinAnsiEncoding [
/.notdef /.notdef /.notdef /.notdef /.notdef
/.notdef /.notdef /.notdef /.notdef /.notdef
/.notdef /.notdef /.notdef /.notdef /.notdef
/.notdef /.notdef /.notdef /.notdef /.notdef
/.notdef /.notdef /.notdef /.notdef /.notdef
/.notdef /.notdef /.notdef /.notdef /.notdef
/.notdef /.notdef /space /exclam /quotedbl
/numbersign /dollar /percent /ampersand /quotesingle
/parenleft /parenright /asterisk /plus /comma
/hyphen /period /slash /zero /one
/two /three /four /five /six
/seven /eight /nine /colon /semicolon
/less /equal /greater /question /at
/A /B /C /D /E
/F /G /H /I /J
/K /L /M /N /O
/P /Q /R /S /T
/U /V /W /X /Y
/Z /bracketleft /backslash /bracketright /asciicircum
/underscore /quoteleft /a /b /c
/d /e /f /g /h
/i /j /k /l /m
/n /o /p /q /r
/s /t /u /v /w
/x /y /z /braceleft /bar
/braceright /asciitilde /bullet /Euro /bullet
/quotesinglbase /florin /quotedblbase /ellipsis /dagger
/daggerdbl /circumflex /perthousand /Scaron /guilsinglleft
/OE /bullet /Zcaron /bullet /bullet
/quoteleft /quoteright /quotedblleft /quotedblright /bullet
/endash /emdash /asciitilde /trademark /scaron
/guilsinglright /oe /bullet /zcaron /Ydieresis
/space /exclamdown /cent /sterling /currency
/yen /brokenbar /section /dieresis /copyright
/ordfeminine /guillemotleft /logicalnot /sfthyphen /registered
/macron /degree /plusminus /twosuperior /threesuperior
/acute /mu /paragraph /middot /cedilla
/onesuperior /ordmasculine /guillemotright /onequarter /onehalf
/threequarters /questiondown /Agrave /Aacute /Acircumflex
/Atilde /Adieresis /Aring /AE /Ccedilla
/Egrave /Eacute /Ecircumflex /Edieresis /Igrave
/Iacute /Icircumflex /Idieresis /Eth /Ntilde
/Ograve /Oacute /Ocircumflex /Otilde /Odieresis
/multiply /Oslash /Ugrave /Uacute /Ucircumflex
/Udieresis /Yacute /Thorn /germandbls /agrave
/aacute /acircumflex /atilde /adieresis /aring
/ae /ccedilla /egrave /eacute /ecircumflex
/edieresis /igrave /iacute /icircumflex /idieresis
/eth /ntilde /ograve /oacute /ocircumflex
/otilde /odieresis /divide /oslash /ugrave
/uacute /ucircumflex /udieresis /yacute /thorn
/ydieresis
] def
%%EndResource
%FOPBeginFontReencode
/Courier-Bold findfont
dup length dict begin
  {1 index /FID ne {def} {pop pop} ifelse} forall
  /Encoding WinAnsiEncoding def
  currentdict
end
/Courier-Bold exch definefont pop
/Helvetica findfont
dup length dict begin
  {1 index /FID ne {def} {pop pop} ifelse} forall
  /Encoding WinAnsiEncoding def
  currentdict
end
/Helvetica exch definefont pop
/Courier-BoldOblique findfont
dup length dict begin
  {1 index /FID ne {def} {pop pop} ifelse} forall
  /Encoding WinAnsiEncoding def
  currentdict
end
/Courier-BoldOblique exch definefont pop
/Courier-Oblique findfont
dup length dict begin
  {1 index /FID ne {def} {pop pop} ifelse} forall
  /Encoding WinAnsiEncoding def
  currentdict
end
/Courier-Oblique exch definefont pop
/Times-Roman findfont
dup length dict begin
  {1 index /FID ne {def} {pop pop} ifelse} forall
  /Encoding WinAnsiEncoding def
  currentdict
end
/Times-Roman exch definefont pop
/Helvetica-BoldOblique findfont
dup length dict begin
  {1 index /FID ne {def} {pop pop} ifelse} forall
  /Encoding WinAnsiEncoding def
  currentdict
end
/Helvetica-BoldOblique exch definefont pop
/Helvetica-Bold findfont
dup length dict begin
  {1 index /FID ne {def} {pop pop} ifelse} forall
  /Encoding WinAnsiEncoding def
  currentdict
end
/Helvetica-Bold exch definefont pop
/Helvetica-Oblique findfont
dup length dict begin
  {1 index /FID ne {def} {pop pop} ifelse} forall
  /Encoding WinAnsiEncoding def
  currentdict
end
/Helvetica-Oblique exch definefont pop
/Times-BoldItalic findfont
dup length dict begin
  {1 index /FID ne {def} {pop pop} ifelse} forall
  /Encoding WinAnsiEncoding def
  currentdict
end
/Times-BoldItalic exch definefont pop
/Courier findfont
dup length dict begin
  {1 index /FID ne {def} {pop pop} ifelse} forall
  /Encoding WinAnsiEncoding def
  currentdict
end
/Courier exch definefont pop
/Times-Italic findfont
dup length dict begin
  {1 index /FID ne {def} {pop pop} ifelse} forall
  /Encoding WinAnsiEncoding def
  currentdict
end
/Times-Italic exch definefont pop
/Times-Bold findfont
dup length dict begin
  {1 index /FID ne {def} {pop pop} ifelse} forall
  /Encoding WinAnsiEncoding def
  currentdict
end
/Times-Bold exch definefont pop
%FOPEndFontReencode
%%EndProlog
%%Page: 1 1
%%PageBoundingBox: 0 0 420 315
%%BeginPageSetup
[1 0 0 -1 0 315] CT
%%EndPageSetup
GS
[0.5 0 0 0.5 0 0] CT
1 GC
N
0 0 840 630 re
f
GR
GS
[0.5 0 0 0.5 0 0] CT
1 GC
N
0 0 840 630 re
f
GR
GS
[0.5 0 0 0.5 0 0] CT
1 GC
N
109 561 M
760 561 L
760 47 L
109 47 L
cp
f
GR
GS
[0.5 0 0 0.5 0 0] CT
0.149 GC
2 setlinecap
1 LJ
N
109 561 M
760 561 L
S
GR
GS
[0.5 0 0 0.5 0 0] CT
0.149 GC
2 setlinecap
1 LJ
N
109 47 M
760 47 L
S
GR
GS
[0.5 0 0 0.5 0 0] CT
0.149 GC
2 setlinecap
1 LJ
N
109 561 M
109 554.49 L
S
GR
GS
[0.5 0 0 0.5 0 0] CT
0.149 GC
2 setlinecap
1 LJ
N
239.2 561 M
239.2 554.49 L
S
GR
GS
[0.5 0 0 0.5 0 0] CT
0.149 GC
2 setlinecap
1 LJ
N
369.4 561 M
369.4 554.49 L
S
GR
GS
[0.5 0 0 0.5 0 0] CT
0.149 GC
2 setlinecap
1 LJ
N
499.6 561 M
499.6 554.49 L
S
GR
GS
[0.5 0 0 0.5 0 0] CT
0.149 GC
2 setlinecap
1 LJ
N
629.8 561 M
629.8 554.49 L
S
GR
GS
[0.5 0 0 0.5 0 0] CT
0.149 GC
2 setlinecap
1 LJ
N
760 561 M
760 554.49 L
S
GR
GS
[0.5 0 0 0.5 0 0] CT
0.149 GC
2 setlinecap
1 LJ
N
109 47 M
109 53.51 L
S
GR
GS
[0.5 0 0 0.5 0 0] CT
0.149 GC
2 setlinecap
1 LJ
N
239.2 47 M
239.2 53.51 L
S
GR
GS
[0.5 0 0 0.5 0 0] CT
0.149 GC
2 setlinecap
1 LJ
N
369.4 47 M
369.4 53.51 L
S
GR
GS
[0.5 0 0 0.5 0 0] CT
0.149 GC
2 setlinecap
1 LJ
N
499.6 47 M
499.6 53.51 L
S
GR
GS
[0.5 0 0 0.5 0 0] CT
0.149 GC
2 setlinecap
1 LJ
N
629.8 47 M
629.8 53.51 L
S
GR
GS
[0.5 0 0 0.5 0 0] CT
0.149 GC
2 setlinecap
1 LJ
N
760 47 M
760 53.51 L
S
GR
GS
[0.5 0 0 0.5 54.5 284.5] CT
0.149 GC
/Helvetica 20 F
GS
[1 0 0 1 0 0] CT
-6 21 moveto 
1 -1 scale
(0) t 
GR
GR
GS
[0.5 0 0 0.5 119.6 284.5] CT
0.149 GC
/Helvetica 20 F
GS
[1 0 0 1 0 0] CT
-11.5 21 moveto 
1 -1 scale
(20) t 
GR
GR
GS
[0.5 0 0 0.5 184.7 284.5] CT
0.149 GC
/Helvetica 20 F
GS
[1 0 0 1 0 0] CT
-11.5 21 moveto 
1 -1 scale
(40) t 
GR
GR
GS
[0.5 0 0 0.5 249.8 284.5] CT
0.149 GC
/Helvetica 20 F
GS
[1 0 0 1 0 0] CT
-11.5 21 moveto 
1 -1 scale
(60) t 
GR
GR
GS
[0.5 0 0 0.5 314.89999 284.5] CT
0.149 GC
/Helvetica 20 F
GS
[1 0 0 1 0 0] CT
-11.5 21 moveto 
1 -1 scale
(80) t 
GR
GR
GS
[0.5 0 0 0.5 380 284.5] CT
0.149 GC
/Helvetica 20 F
GS
[1 0 0 1 0 0] CT
-17 21 moveto 
1 -1 scale
(100) t 
GR
GR
GS
[0.5 0 0 0.5 0 0] CT
0.149 GC
2 setlinecap
1 LJ
N
109 561 M
109 47 L
S
GR
GS
[0.5 0 0 0.5 0 0] CT
0.149 GC
2 setlinecap
1 LJ
N
760 561 M
760 47 L
S
GR
GS
[0.5 0 0 0.5 0 0] CT
0.149 GC
2 setlinecap
1 LJ
N
109 561 M
115.51 561 L
S
GR
GS
[0.5 0 0 0.5 0 0] CT
0.149 GC
2 setlinecap
1 LJ
N
109 496.75 M
115.51 496.75 L
S
GR
GS
[0.5 0 0 0.5 0 0] CT
0.149 GC
2 setlinecap
1 LJ
N
109 432.5 M
115.51 432.5 L
S
GR
GS
[0.5 0 0 0.5 0 0] CT
0.149 GC
2 setlinecap
1 LJ
N
109 368.25 M
115.51 368.25 L
S
GR
GS
[0.5 0 0 0.5 0 0] CT
0.149 GC
2 setlinecap
1 LJ
N
109 304 M
115.51 304 L
S
GR
GS
[0.5 0 0 0.5 0 0] CT
0.149 GC
2 setlinecap
1 LJ
N
109 239.75 M
115.51 239.75 L
S
GR
GS
[0.5 0 0 0.5 0 0] CT
0.149 GC
2 setlinecap
1 LJ
N
109 175.5 M
115.51 175.5 L
S
GR
GS
[0.5 0 0 0.5 0 0] CT
0.149 GC
2 setlinecap
1 LJ
N
109 111.25 M
115.51 111.25 L
S
GR
GS
[0.5 0 0 0.5 0 0] CT
0.149 GC
2 setlinecap
1 LJ
N
109 47 M
115.51 47 L
S
GR
GS
[0.5 0 0 0.5 0 0] CT
0.149 GC
2 setlinecap
1 LJ
N
760 561 M
753.49 561 L
S
GR
GS
[0.5 0 0 0.5 0 0] CT
0.149 GC
2 setlinecap
1 LJ
N
760 496.75 M
753.49 496.75 L
S
GR
GS
[0.5 0 0 0.5 0 0] CT
0.149 GC
2 setlinecap
1 LJ
N
760 432.5 M
753.49 432.5 L
S
GR
GS
[0.5 0 0 0.5 0 0] CT
0.149 GC
2 setlinecap
1 LJ
N
760 368.25 M
753.49 368.25 L
S
GR
GS
[0.5 0 0 0.5 0 0] CT
0.149 GC
2 setlinecap
1 LJ
N
760 304 M
753.49 304 L
S
GR
GS
[0.5 0 0 0.5 0 0] CT
0.149 GC
2 setlinecap
1 LJ
N
760 239.75 M
753.49 239.75 L
S
GR
GS
[0.5 0 0 0.5 0 0] CT
0.149 GC
2 setlinecap
1 LJ
N
760 175.5 M
753.49 175.5 L
S
GR
GS
[0.5 0 0 0.5 0 0] CT
0.149 GC
2 setlinecap
1 LJ
N
760 111.25 M
753.49 111.25 L
S
GR
GS
[0.5 0 0 0.5 0 0] CT
0.149 GC
2 setlinecap
1 LJ
N
760 47 M
753.49 47 L
S
GR
GS
[0.5 0 0 0.5 50.5 280.5] CT
0.149 GC
/Helvetica 20 F
GS
[1 0 0 1 0 0] CT
-12 8 moveto 
1 -1 scale
(0) t 
GR
GR
GS
[0.5 0 0 0.5 50.5 248.375] CT
0.149 GC
/Helvetica 20 F
GS
[1 0 0 1 0 0] CT
-12 8 moveto 
1 -1 scale
(5) t 
GR
GR
GS
[0.5 0 0 0.5 50.5 216.25] CT
0.149 GC
/Helvetica 20 F
GS
[1 0 0 1 0 0] CT
-23 8 moveto 
1 -1 scale
(10) t 
GR
GR
GS
[0.5 0 0 0.5 50.5 184.125] CT
0.149 GC
/Helvetica 20 F
GS
[1 0 0 1 0 0] CT
-23 8 moveto 
1 -1 scale
(15) t 
GR
GR
GS
[0.5 0 0 0.5 50.5 152] CT
0.149 GC
/Helvetica 20 F
GS
[1 0 0 1 0 0] CT
-23 8 moveto 
1 -1 scale
(20) t 
GR
GR
GS
[0.5 0 0 0.5 50.5 119.875] CT
0.149 GC
/Helvetica 20 F
GS
[1 0 0 1 0 0] CT
-23 8 moveto 
1 -1 scale
(25) t 
GR
GR
GS
[0.5 0 0 0.5 50.5 87.75] CT
0.149 GC
/Helvetica 20 F
GS
[1 0 0 1 0 0] CT
-23 8 moveto 
1 -1 scale
(30) t 
GR
GR
GS
[0.5 0 0 0.5 50.5 55.625] CT
0.149 GC
/Helvetica 20 F
GS
[1 0 0 1 0 0] CT
-23 8 moveto 
1 -1 scale
(35) t 
GR
GR
GS
[0.5 0 0 0.5 50.5 23.5] CT
0.149 GC
/Helvetica 20 F
GS
[1 0 0 1 0 0] CT
-23 8 moveto 
1 -1 scale
(40) t 
GR
GR
GS
[0.5 0 0 0.5 217.25021 22.125] CT
/Helvetica-Bold 22 F
GS
[1 0 0 1 0 0] CT
-43 -5 moveto 
1 -1 scale
(Figure 1) t 
GR
GR
GS
[0.5 0 0 0.5 0 0] CT
0 0.447 0.741 RC
1 LJ
N
109 561 M
112.255 555.882 L
115.51 550.983 L
118.765 546.135 L
122.02 541.422 L
125.275 536.858 L
128.53 532.418 L
131.785 528.085 L
135.04 523.845 L
138.295 519.692 L
141.55 515.596 L
144.805 511.518 L
148.06 507.513 L
151.315 503.569 L
154.57 499.691 L
157.825 495.868 L
161.08 492.098 L
164.335 488.379 L
167.59 484.712 L
170.845 481.088 L
174.1 477.482 L
177.355 473.899 L
180.61 470.364 L
183.865 466.871 L
187.12 463.41 L
190.375 459.987 L
193.63 456.603 L
196.885 453.257 L
200.14 449.942 L
203.395 446.656 L
206.65 443.403 L
209.905 440.182 L
213.16 436.973 L
216.415 433.783 L
219.67 430.622 L
222.925 427.49 L
226.18 424.382 L
229.435 421.301 L
232.69 418.248 L
235.945 415.221 L
239.2 412.218 L
242.455 409.241 L
245.71 406.287 L
248.965 403.356 L
252.22 400.445 L
255.475 397.559 L
258.73 394.692 L
261.985 391.829 L
265.24 388.985 L
268.495 386.163 L
271.75 383.362 L
275.005 380.583 L
278.26 377.821 L
281.515 375.079 L
284.77 372.357 L
288.025 369.654 L
291.28 366.969 L
294.535 364.302 L
297.79 361.653 L
301.045 359.021 L
304.3 356.408 L
307.555 353.812 L
310.81 351.232 L
314.065 348.667 L
317.32 346.105 L
320.575 343.558 L
323.83 341.028 L
327.085 338.512 L
330.34 336.012 L
333.595 333.529 L
336.85 331.059 L
340.105 328.604 L
343.36 326.164 L
346.615 323.739 L
349.87 321.329 L
353.125 318.932 L
356.38 316.549 L
359.635 314.18 L
362.89 311.825 L
366.145 309.484 L
369.4 307.156 L
372.655 304.841 L
375.91 302.54 L
379.165 300.251 L
382.42 297.967 L
385.675 295.69 L
388.93 293.425 L
392.185 291.173 L
395.44 288.932 L
398.695 286.704 L
401.95 284.488 L
405.205 282.284 L
408.46 280.092 L
411.715 277.912 L
414.97 275.743 L
418.225 273.586 L
421.48 271.44 L
424.735 269.305 L
427.99 267.181 L
431.245 265.068 L
434.5 262.965 L
437.755 260.873 L
441.01 258.791 L
444.265 256.719 L
447.52 254.656 L
450.775 252.604 L
454.03 250.563 L
457.285 248.532 L
460.54 246.506 L
463.795 244.486 L
467.05 242.476 L
470.305 240.475 L
473.56 238.483 L
476.815 236.501 L
480.07 234.529 L
483.325 232.567 L
486.58 230.613 L
489.835 228.669 L
493.09 226.734 L
496.345 224.809 L
499.6 222.893 L
502.855 220.985 L
506.11 219.086 L
509.365 217.196 L
512.62 215.312 L
515.875 213.437 L
519.13 211.57 L
522.385 209.713 L
525.64 207.864 L
528.895 206.024 L
532.15 204.192 L
535.405 202.369 L
538.66 200.554 L
541.915 198.747 L
545.17 196.947 L
548.425 195.156 L
551.68 193.371 L
554.935 191.588 L
558.19 189.812 L
561.445 188.045 L
564.7 186.286 L
567.955 184.534 L
571.21 182.79 L
574.465 181.054 L
577.72 179.325 L
580.975 177.604 L
584.23 175.889 L
587.485 174.182 L
590.74 172.481 L
593.995 170.787 L
597.25 169.099 L
600.505 167.418 L
603.76 165.745 L
607.015 164.079 L
610.27 162.42 L
613.525 160.768 L
616.78 159.123 L
620.035 157.485 L
623.29 155.854 L
626.545 154.229 L
629.8 152.61 L
633.055 150.999 L
636.31 149.393 L
639.565 147.795 L
642.82 146.203 L
646.075 144.618 L
649.33 143.039 L
652.585 141.467 L
655.84 139.902 L
659.095 138.342 L
662.35 136.785 L
665.605 135.233 L
668.86 133.686 L
672.115 132.145 L
675.37 130.611 L
678.625 129.083 L
681.88 127.56 L
685.135 126.044 L
688.39 124.533 L
691.645 123.028 L
694.9 121.528 L
698.155 120.033 L
701.41 118.544 L
704.665 117.061 L
707.92 115.583 L
711.175 114.112 L
714.43 112.646 L
717.685 111.186 L
720.94 109.731 L
724.195 108.283 L
727.45 106.839 L
730.705 105.401 L
733.96 103.968 L
737.215 102.541 L
740.47 101.118 L
743.725 99.702 L
746.98 98.291 L
750.235 96.885 L
753.49 95.485 L
756.745 94.09 L
760 92.7 L
S
GR
GS
[0.5 0 0 0.5 0 0] CT
0.851 0.325 0.098 RC
1 LJ
N
109 561 M
112.255 555.484 L
115.51 550.147 L
118.765 545.099 L
122.02 540.249 L
125.275 535.486 L
128.53 530.8 L
131.785 526.245 L
135.04 521.804 L
138.295 517.461 L
141.55 513.187 L
144.805 508.936 L
148.06 504.762 L
151.315 500.665 L
154.57 496.634 L
157.825 492.669 L
161.08 488.762 L
164.335 484.885 L
167.59 481.036 L
170.845 477.237 L
174.1 473.493 L
177.355 469.794 L
180.61 466.138 L
183.865 462.531 L
187.12 458.968 L
190.375 455.433 L
193.63 451.903 L
196.885 448.412 L
200.14 444.963 L
203.395 441.551 L
206.65 438.173 L
209.905 434.825 L
213.16 431.51 L
216.415 428.23 L
219.67 424.981 L
222.925 421.751 L
226.18 418.531 L
229.435 415.341 L
232.69 412.177 L
235.945 409.04 L
239.2 405.933 L
242.455 402.852 L
245.71 399.795 L
248.965 396.765 L
252.22 393.759 L
255.475 390.775 L
258.73 387.815 L
261.985 384.864 L
265.24 381.928 L
268.495 379.016 L
271.75 376.123 L
275.005 373.253 L
278.26 370.405 L
281.515 367.578 L
284.77 364.77 L
288.025 361.981 L
291.28 359.214 L
294.535 356.466 L
297.79 353.736 L
301.045 351.026 L
304.3 348.333 L
307.555 345.64 L
310.81 342.965 L
314.065 340.309 L
317.32 337.671 L
320.575 335.048 L
323.83 332.442 L
327.085 329.854 L
330.34 327.283 L
333.595 324.727 L
336.85 322.188 L
340.105 319.665 L
343.36 317.157 L
346.615 314.664 L
349.87 312.186 L
353.125 309.723 L
356.38 307.271 L
359.635 304.822 L
362.89 302.387 L
366.145 299.966 L
369.4 297.56 L
372.655 295.169 L
375.91 292.792 L
379.165 290.428 L
382.42 288.079 L
385.675 285.743 L
388.93 283.419 L
392.185 281.109 L
395.44 278.81 L
398.695 276.523 L
401.95 274.247 L
405.205 271.984 L
408.46 269.734 L
411.715 267.497 L
414.97 265.271 L
418.225 263.047 L
421.48 260.834 L
424.735 258.634 L
427.99 256.445 L
431.245 254.268 L
434.5 252.101 L
437.755 249.947 L
441.01 247.803 L
444.265 245.67 L
447.52 243.548 L
450.775 241.436 L
454.03 239.333 L
457.285 237.239 L
460.54 235.156 L
463.795 233.084 L
467.05 231.024 L
470.305 228.973 L
473.56 226.934 L
476.815 224.904 L
480.07 222.885 L
483.325 220.875 L
486.58 218.866 L
489.835 216.866 L
493.09 214.876 L
496.345 212.895 L
499.6 210.923 L
502.855 208.961 L
506.11 207.009 L
509.365 205.065 L
512.62 203.131 L
515.875 201.206 L
519.13 199.288 L
522.385 197.377 L
525.64 195.475 L
528.895 193.582 L
532.15 191.698 L
535.405 189.824 L
538.66 187.958 L
541.915 186.101 L
545.17 184.252 L
548.425 182.412 L
551.68 180.58 L
554.935 178.756 L
558.19 176.94 L
561.445 175.131 L
564.7 173.328 L
567.955 171.528 L
571.21 169.736 L
574.465 167.952 L
577.72 166.177 L
580.975 164.409 L
584.23 162.649 L
587.485 160.896 L
590.74 159.151 L
593.995 157.413 L
597.25 155.683 L
600.505 153.959 L
603.76 152.242 L
607.015 150.531 L
610.27 148.827 L
613.525 147.131 L
616.78 145.442 L
620.035 143.761 L
623.29 142.087 L
626.545 140.42 L
629.8 138.76 L
633.055 137.107 L
636.31 135.461 L
639.565 133.821 L
642.82 132.188 L
646.075 130.561 L
649.33 128.941 L
652.585 127.328 L
655.84 125.722 L
659.095 124.115 L
662.35 122.516 L
665.605 120.923 L
668.86 119.336 L
672.115 117.756 L
675.37 116.183 L
678.625 114.615 L
681.88 113.054 L
685.135 111.499 L
688.39 109.951 L
691.645 108.408 L
694.9 106.871 L
698.155 105.34 L
701.41 103.815 L
704.665 102.296 L
707.92 100.781 L
711.175 99.272 L
714.43 97.77 L
717.685 96.273 L
720.94 94.783 L
724.195 93.298 L
727.45 91.819 L
730.705 90.346 L
733.96 88.878 L
737.215 87.416 L
740.47 85.96 L
743.725 84.509 L
746.98 83.063 L
750.235 81.623 L
753.49 80.188 L
756.745 78.759 L
760 77.335 L
S
GR
GS
[0.5 0 0 0.5 0 0] CT
0.929 0.694 0.125 RC
1 LJ
N
109 561 M
112.255 554.816 L
115.51 549.219 L
118.765 543.787 L
122.02 538.576 L
125.275 533.568 L
128.53 528.627 L
131.785 523.803 L
135.04 519.12 L
138.295 514.556 L
141.55 510.01 L
144.805 505.55 L
148.06 501.188 L
151.315 496.908 L
154.57 492.705 L
157.825 488.505 L
161.08 484.376 L
164.335 480.315 L
167.59 476.315 L
170.845 472.378 L
174.1 468.48 L
177.355 464.592 L
180.61 460.764 L
183.865 456.983 L
187.12 453.245 L
190.375 449.56 L
193.63 445.919 L
196.885 442.3 L
200.14 438.695 L
203.395 435.131 L
206.65 431.609 L
209.905 428.126 L
213.16 424.678 L
216.415 421.262 L
219.67 417.881 L
222.925 414.52 L
226.18 411.173 L
229.435 407.86 L
232.69 404.575 L
235.945 401.322 L
239.2 398.097 L
242.455 394.9 L
245.71 391.732 L
248.965 388.592 L
252.22 385.473 L
255.475 382.357 L
258.73 379.27 L
261.985 376.207 L
265.24 373.169 L
268.495 370.153 L
271.75 367.164 L
275.005 364.197 L
278.26 361.252 L
281.515 358.33 L
284.77 355.43 L
288.025 352.538 L
291.28 349.66 L
294.535 346.801 L
297.79 343.963 L
301.045 341.147 L
304.3 338.35 L
307.555 335.572 L
310.81 332.814 L
314.065 330.074 L
317.32 327.354 L
320.575 324.652 L
323.83 321.968 L
327.085 319.292 L
330.34 316.624 L
333.595 313.973 L
336.85 311.34 L
340.105 308.724 L
343.36 306.125 L
346.615 303.543 L
349.87 300.978 L
353.125 298.429 L
356.38 295.895 L
359.635 293.377 L
362.89 290.873 L
366.145 288.384 L
369.4 285.907 L
372.655 283.436 L
375.91 280.974 L
379.165 278.528 L
382.42 276.097 L
385.675 273.681 L
388.93 271.28 L
392.185 268.893 L
395.44 266.52 L
398.695 264.16 L
401.95 261.813 L
405.205 259.479 L
408.46 257.156 L
411.715 254.843 L
414.97 252.543 L
418.225 250.256 L
421.48 247.981 L
424.735 245.707 L
427.99 243.447 L
431.245 241.199 L
434.5 238.964 L
437.755 236.741 L
441.01 234.53 L
444.265 232.331 L
447.52 230.144 L
450.775 227.968 L
454.03 225.802 L
457.285 223.648 L
460.54 221.503 L
463.795 219.369 L
467.05 217.241 L
470.305 215.125 L
473.56 213.021 L
476.815 210.928 L
480.07 208.843 L
483.325 206.761 L
486.58 204.691 L
489.835 202.631 L
493.09 200.581 L
496.345 198.541 L
499.6 196.512 L
502.855 194.492 L
506.11 192.482 L
509.365 190.481 L
512.62 188.489 L
515.875 186.508 L
519.13 184.535 L
522.385 182.572 L
525.64 180.617 L
528.895 178.671 L
532.15 176.732 L
535.405 174.801 L
538.66 172.88 L
541.915 170.969 L
545.17 169.066 L
548.425 167.164 L
551.68 165.271 L
554.935 163.387 L
558.19 161.511 L
561.445 159.644 L
564.7 157.786 L
567.955 155.936 L
571.21 154.094 L
574.465 152.26 L
577.72 150.434 L
580.975 148.616 L
584.23 146.806 L
587.485 145.004 L
590.74 143.21 L
593.995 141.425 L
597.25 139.646 L
600.505 137.876 L
603.76 136.113 L
607.015 134.358 L
610.27 132.609 L
613.525 130.867 L
616.78 129.132 L
620.035 127.405 L
623.29 125.678 L
626.545 123.958 L
629.8 122.245 L
633.055 120.54 L
636.31 118.843 L
639.565 117.153 L
642.82 115.47 L
646.075 113.794 L
649.33 112.125 L
652.585 110.462 L
655.84 108.807 L
659.095 107.158 L
662.35 105.515 L
665.605 103.879 L
668.86 102.251 L
672.115 100.629 L
675.37 99.013 L
678.625 97.404 L
681.88 95.802 L
685.135 94.206 L
688.39 92.617 L
691.645 91.033 L
694.9 89.457 L
698.155 87.886 L
701.41 86.322 L
704.665 84.764 L
707.92 83.207 L
711.175 81.655 L
714.43 80.109 L
717.685 78.568 L
720.94 77.033 L
724.195 75.504 L
727.45 73.981 L
730.705 72.464 L
733.96 70.954 L
737.215 69.449 L
740.47 67.95 L
743.725 66.457 L
746.98 64.97 L
750.235 63.488 L
753.49 62.012 L
756.745 60.542 L
760 59.077 L
S
GR
GS
[0.5 0 0 0.5 0 0] CT
1 GC
N
633 143 M
633 67 L
740 67 L
740 143 L
cp
f
GR
GS
[0.5 0 0 0.5 344.12094 40.70261] CT
/Helvetica 18 F
GS
[1 0 0 1 0 0] CT
0 7.5 moveto 
1 -1 scale
(p=0.9) t 
GR
GR
GS
[0.5 0 0 0.5 0 0] CT
0 0.447 0.741 RC
1 LJ
N
638.972 81.405 M
683.763 81.405 L
S
GR
GS
[0.5 0 0 0.5 344.12094 52.5] CT
/Helvetica 18 F
GS
[1 0 0 1 0 0] CT
0 7.5 moveto 
1 -1 scale
(p=1) t 
GR
GR
GS
[0.5 0 0 0.5 0 0] CT
0.851 0.325 0.098 RC
1 LJ
N
638.972 105 M
683.763 105 L
S
GR
GS
[0.5 0 0 0.5 344.12094 64.29739] CT
/Helvetica 18 F
GS
[1 0 0 1 0 0] CT
0 7.5 moveto 
1 -1 scale
(p=1.1) t 
GR
GR
GS
[0.5 0 0 0.5 0 0] CT
0.929 0.694 0.125 RC
1 LJ
N
638.972 128.595 M
683.763 128.595 L
S
GR
GS
[0.5 0 0 0.5 0 0] CT
0.149 GC
10.0 ML
N
633 143 M
633 67 L
740 67 L
740 143 L
cp
S
GR
%%Trailer
%%Pages: 1
%%EOF
